-------------------------------------------------------------------------------
Test set: com.kural.cassandra.SpringBootDataCassandraApplicationTests
-------------------------------------------------------------------------------
Tests run: 1, Failures: 0, Errors: 0, Skipped: 0, Time elapsed: 10.781 s - in com.kural.cassandra.SpringBootDataCassandraApplicationTests
