/Users/alosinnathamby/Documents/wsking/cassandra/kuralgraph/gitlab/eventshistory/src/main/java/com/kural/cassandra/controller/TutorialController.java
/Users/alosinnathamby/Documents/wsking/cassandra/kuralgraph/gitlab/eventshistory/src/main/java/com/kural/cassandra/model/Tutorial.java
/Users/alosinnathamby/Documents/wsking/cassandra/kuralgraph/gitlab/eventshistory/src/main/java/com/kural/cassandra/SpringBootDataCassandraApplication.java
/Users/alosinnathamby/Documents/wsking/cassandra/kuralgraph/gitlab/eventshistory/src/main/java/com/kural/cassandra/repository/TutorialRepository.java
